[
	{
		"name": "Zenia Shields",
		"address": "3111 Iaculis St."
	},
	{
		"name": "Rana Wilder",
		"address": "943-8290 Aliquam Street"
	},
	{
		"name": "Candice Berry",
		"address": "958-5156 Adipiscing Av."
	},
	{
		"name": "Mia Banks",
		"address": "418-6140 Nec, Rd."
	},
	{
		"name": "Rudyard Rutledge",
		"address": "P.O. Box 491, 5974 Magna. Ave"
	},
	{
		"name": "May Reeves",
		"address": "Ap #723-9655 Dictum Av."
	},
	{
		"name": "Aladdin Sykes",
		"address": "P.O. Box 445, 3110 Molestie Avenue"
	},
	{
		"name": "Dustin Hester",
		"address": "7331 Nibh Rd."
	},
	{
		"name": "Belle Barry",
		"address": "Ap #245-4165 Odio. St."
	},
	{
		"name": "Xerxes Jarvis",
		"address": "603-3186 Proin Avenue"
	},
	{
		"name": "Darryl Ruiz",
		"address": "Ap #607-4223 Quis Rd."
	},
	{
		"name": "Callum Willis",
		"address": "137 Nisi. Ave"
	},
	{
		"name": "Chester Whitehead",
		"address": "P.O. Box 838, 9591 Penatibus Rd."
	},
	{
		"name": "Elijah Molina",
		"address": "8801 Mauris Av."
	},
	{
		"name": "Zeus Diaz",
		"address": "270-3809 Curabitur Rd."
	},
	{
		"name": "Zahir Ortega",
		"address": "601 Bibendum Rd."
	},
	{
		"name": "Alden Walter",
		"address": "Ap #321-8752 Elementum Ave"
	},
	{
		"name": "Francesca Bradshaw",
		"address": "Ap #758-6260 Eget, Ave"
	},
	{
		"name": "Tarik Hartman",
		"address": "419-9425 A, Rd."
	},
	{
		"name": "Charles Greene",
		"address": "1650 Cras Rd."
	},
	{
		"name": "Lacey Sherman",
		"address": "3998 Interdum. Street"
	},
	{
		"name": "Rahim Cunningham",
		"address": "Ap #246-3628 Condimentum. Road"
	},
	{
		"name": "Daquan Padilla",
		"address": "P.O. Box 436, 1476 Elit. St."
	},
	{
		"name": "Kasimir Ramirez",
		"address": "P.O. Box 631, 720 Laoreet Av."
	},
	{
		"name": "Germane Merritt",
		"address": "1402 Nulla St."
	},
	{
		"name": "Mallory Gilmore",
		"address": "549 Magna Street"
	},
	{
		"name": "Kylynn Leach",
		"address": "740-9123 Consectetuer Road"
	},
	{
		"name": "Jenette Cooper",
		"address": "6915 Aliquet St."
	},
	{
		"name": "Duncan Patrick",
		"address": "Ap #684-6289 Sit Street"
	},
	{
		"name": "Hilel Burt",
		"address": "5760 Nunc Street"
	},
	{
		"name": "Sheila Harding",
		"address": "206 Et St."
	},
	{
		"name": "Tate Vargas",
		"address": "218-3962 Lacinia St."
	},
	{
		"name": "Brenden Colon",
		"address": "Ap #837-9207 Lectus Road"
	},
	{
		"name": "Stephen Richmond",
		"address": "7856 Lectus St."
	},
	{
		"name": "Ciaran Haley",
		"address": "P.O. Box 829, 7519 Non Avenue"
	},
	{
		"name": "Jelani Burch",
		"address": "221-5465 Consectetuer Street"
	},
	{
		"name": "Shana Neal",
		"address": "184-1086 In, Rd."
	},
	{
		"name": "Brianna Obrien",
		"address": "613-9380 Quisque Street"
	},
	{
		"name": "Drake Warner",
		"address": "P.O. Box 869, 8922 Faucibus Avenue"
	},
	{
		"name": "Sawyer Poole",
		"address": "1633 Imperdiet Avenue"
	},
	{
		"name": "Montana Orr",
		"address": "598-4508 Integer St."
	},
	{
		"name": "Julie Wong",
		"address": "P.O. Box 521, 3993 Nec Street"
	},
	{
		"name": "Maxine Barton",
		"address": "5664 Viverra. Rd."
	},
	{
		"name": "Ciara Gilliam",
		"address": "P.O. Box 497, 9193 Nulla Street"
	},
	{
		"name": "Madeline Miles",
		"address": "Ap #448-1211 Mi Ave"
	},
	{
		"name": "Ryder Mccall",
		"address": "Ap #280-339 Dolor St."
	},
	{
		"name": "Dawn Barron",
		"address": "Ap #376-6381 Molestie Street"
	},
	{
		"name": "Urielle Wilcox",
		"address": "Ap #389-794 Non Rd."
	},
	{
		"name": "Ursa Sawyer",
		"address": "P.O. Box 770, 900 Sem Ave"
	},
	{
		"name": "Brynne Chambers",
		"address": "696-6102 Egestas. Street"
	},
	{
		"name": "Cecilia Santos",
		"address": "7903 Semper Road"
	},
	{
		"name": "Grant Berger",
		"address": "244-4699 Lacus. Rd."
	},
	{
		"name": "Priscilla Blanchard",
		"address": "P.O. Box 496, 5122 Fusce Av."
	},
	{
		"name": "Ian Nunez",
		"address": "P.O. Box 570, 9401 Rhoncus. Rd."
	},
	{
		"name": "Elmo Stevenson",
		"address": "P.O. Box 959, 9859 Et St."
	},
	{
		"name": "Aubrey Stevens",
		"address": "950-8528 Varius. Avenue"
	},
	{
		"name": "Vernon Blake",
		"address": "P.O. Box 153, 5905 A Rd."
	},
	{
		"name": "Scarlet Lindsey",
		"address": "2841 Nulla Rd."
	},
	{
		"name": "Nerea Vaughan",
		"address": "Ap #769-7588 Non St."
	},
	{
		"name": "Emmanuel Parrish",
		"address": "Ap #119-3195 Ornare, Avenue"
	},
	{
		"name": "Rachel Glover",
		"address": "Ap #866-736 Congue, Avenue"
	},
	{
		"name": "Brandon Dotson",
		"address": "708-2613 Nec, Rd."
	},
	{
		"name": "Octavius Boone",
		"address": "Ap #209-314 Venenatis Road"
	},
	{
		"name": "Keane Hines",
		"address": "Ap #471-3374 Mauris St."
	},
	{
		"name": "Berk Howe",
		"address": "Ap #254-9899 Velit Road"
	},
	{
		"name": "Joan Sheppard",
		"address": "Ap #726-7766 Mi, Av."
	},
	{
		"name": "Abigail Dominguez",
		"address": "Ap #855-9598 Et Rd."
	},
	{
		"name": "Pandora Finley",
		"address": "P.O. Box 532, 8662 Phasellus Av."
	},
	{
		"name": "Roanna Joseph",
		"address": "6546 Proin St."
	},
	{
		"name": "Garrett Butler",
		"address": "Ap #978-766 Placerat Ave"
	},
	{
		"name": "Tasha Fitzpatrick",
		"address": "165-585 Quisque Av."
	},
	{
		"name": "Ferdinand Long",
		"address": "Ap #441-8661 Nec, Avenue"
	},
	{
		"name": "Alexandra Mcfarland",
		"address": "Ap #911-9820 Odio. Rd."
	},
	{
		"name": "Preston Pugh",
		"address": "622-5551 Orci Road"
	},
	{
		"name": "Quemby Meadows",
		"address": "4284 Sed Avenue"
	},
	{
		"name": "Cade Pickett",
		"address": "5489 Montes, Street"
	},
	{
		"name": "Quinlan Noel",
		"address": "994-5980 Ac Av."
	},
	{
		"name": "Bethany Vaughan",
		"address": "935-5648 Augue St."
	},
	{
		"name": "Hayley Nolan",
		"address": "P.O. Box 247, 4543 Blandit Road"
	},
	{
		"name": "Grady Williams",
		"address": "177 Molestie Rd."
	},
	{
		"name": "Rana Rose",
		"address": "1337 Eu Street"
	},
	{
		"name": "Jeremy Hood",
		"address": "232-8365 Quam. St."
	},
	{
		"name": "Isabella Velasquez",
		"address": "Ap #473-348 Et Road"
	},
	{
		"name": "Hanna Travis",
		"address": "181-9981 Dolor. Avenue"
	},
	{
		"name": "Pamela Arnold",
		"address": "267-6285 Hendrerit Rd."
	},
	{
		"name": "Martha Dillard",
		"address": "P.O. Box 622, 2580 Mauris Avenue"
	},
	{
		"name": "Salvador Levine",
		"address": "621-8997 Ligula Ave"
	},
	{
		"name": "Yoko Klein",
		"address": "P.O. Box 900, 795 Hendrerit Road"
	},
	{
		"name": "Shellie Patton",
		"address": "P.O. Box 176, 1534 Nunc St."
	},
	{
		"name": "Dale Gillespie",
		"address": "470-4052 Nulla Ave"
	},
	{
		"name": "Jolene Snider",
		"address": "388-9710 Nisl. St."
	},
	{
		"name": "Andrew Gilmore",
		"address": "664-3493 Purus Rd."
	},
	{
		"name": "Lavinia Hensley",
		"address": "399-9370 Vitae Ave"
	},
	{
		"name": "Reece Park",
		"address": "746-5212 Varius Av."
	},
	{
		"name": "Conan Gutierrez",
		"address": "8041 Ligula. Road"
	},
	{
		"name": "Ryan Carson",
		"address": "Ap #425-6478 Quisque Rd."
	},
	{
		"name": "Peter Jenkins",
		"address": "372-1594 Tincidunt Av."
	},
	{
		"name": "Rhoda Hood",
		"address": "982 Nunc Rd."
	},
	{
		"name": "Amena Tillman",
		"address": "345-4404 Sed, Ave"
	},
	{
		"name": "Shad Harrison",
		"address": "Ap #451-9093 Eros. Rd."
	}
]
